{
  "name": "fe-documentation",
  "$schema": "../../../node_modules/nx/schemas/project-schema.json",
  "projectType": "application",
  "sourceRoot": "apps/fe/documentation/src",
  "prefix": "noilda",
  "targets": {
    "build": {
      "executor": "@angular-devkit/build-angular:browser",
      "outputs": ["{options.outputPath}"],
      "options": {
        "outputPath": "dist/apps/fe/documentation",
        "index": "apps/fe/documentation/src/index.html",
        "main": "apps/fe/documentation/src/main.ts",
        "polyfills": "apps/fe/documentation/src/polyfills.ts",
        "tsConfig": "apps/fe/documentation/tsconfig.app.json",
        "assets": [
          "apps/fe/documentation/src/favicon.ico",
          "apps/fe/documentation/src/assets"
        ],
        "styles": ["apps/fe/documentation/src/styles.scss"],
        "scripts": []
      },
      "configurations": {
        "production": {
          "budgets": [
            {
              "type": "initial",
              "maximumWarning": "500kb",
              "maximumError": "1mb"
            },
            {
              "type": "anyComponentStyle",
              "maximumWarning": "2kb",
              "maximumError": "4kb"
            }
          ],
          "fileReplacements": [
            {
              "replace": "apps/fe/documentation/src/environments/environment.ts",
              "with": "apps/fe/documentation/src/environments/environment.prod.ts"
            }
          ],
          "outputHashing": "all"
        },
        "development": {
          "buildOptimizer": false,
          "optimization": false,
          "vendorChunk": true,
          "extractLicenses": false,
          "sourceMap": true,
          "namedChunks": true
        }
      },
      "defaultConfiguration": "production"
    },
    "serve": {
      "executor": "@angular-devkit/build-angular:dev-server",
      "configurations": {
        "production": {
          "buildTarget": "fe-documentation:build:production"
        },
        "development": {
          "buildTarget": "fe-documentation:build:development"
        }
      },
      "defaultConfiguration": "development"
    },
    "extract-i18n": {
      "executor": "@angular-devkit/build-angular:extract-i18n",
      "options": {
        "buildTarget": "fe-documentation:build"
      }
    },
    "lint": {
      "executor": "@nx/eslint:lint"
    },
    "test": {
      "executor": "@nx/jest:jest",
      "outputs": ["{workspaceRoot}/coverage/{projectRoot}"],
      "options": {
        "jestConfig": "apps/fe/documentation/jest.config.ts"
      }
    }
  },
  "tags": []
}
