{
  "name": "api_response",
  "$schema": "../../../../node_modules/nx/schemas/project-schema.json",
  "projectType": "library",
  "sourceRoot": "libs/go/echo/api_response/api_response",
  "targets": {
    "test": {
      "executor": "@noilda/nx-go:test"
    },
    "lint": {
      "executor": "@noilda/nx-go:lint"
    }
  },
  "tags": []
}
